[
  {
    "pk": 1,
    "model": "challenges.ChallengeLabel",
    "fields": {
      "name": "Car"

    }
  },
  {
    "pk": 2,
    "model": "challenges.ChallengeLabel",
    "fields": {
      "name": "Home"

    }
  },
  {
    "pk": 3,
    "model": "challenges.ChallengeLabel",
    "fields": {
      "name": "No possessions"

    }
  },
  {
    "pk": 4,
    "model": "challenges.ChallengeLabel",
    "fields": {
      "name": "Vegetarian"

    }
  },
  {
    "pk": 5,
    "model": "challenges.ChallengeLabel",
    "fields": {
      "name": "Vegan"

    }
  },
  {
    "pk": 6,
    "model": "challenges.ChallengeLabel",
    "fields": {
      "name": "Omnivore"
    }
  }
]
